<?xml version="1.0" encoding="utf-8"?>
<!-- Generator: Adobe Illustrator 24.0.1, SVG Export Plug-In . SVG Version: 6.00 Build 0)  -->
<svg version="1.2" baseProfile="tiny" id="Layer_1" xmlns="http://www.w3.org/2000/svg" xmlns:xlink="http://www.w3.org/1999/xlink"
	 x="0px" y="0px" viewBox="0 0 1920 180" xml:space="preserve">
<linearGradient id="SVGID_1_" gradientUnits="userSpaceOnUse" x1="960" y1="62.1563" x2="960" y2="232.4824">
	<stop  offset="0" style="stop-color:#00FF77"/>
	<stop  offset="1" style="stop-color:#29FFFF"/>
</linearGradient>
<polygon fill="url(#SVGID_1_)" points="0,76.1 277.9,180 663.5,96.2 998.7,180 1429.9,38.2 1702.4,146.5 1920,38.2 1920,180 0,180 
	"/>
</svg>
